%YAML 1.1
%TAG !u! tag:unity3d.com,2011:
--- !u!1001 &3028309590973803308
PrefabInstance:
  m_ObjectHideFlags: 0
  serializedVersion: 2
  m_Modification:
    m_TransformParent: {fileID: 0}
    m_Modifications:
    - target: {fileID: 135484348667764758, guid: 39c2c66a3ccc5ce43afc4ffd4abd924b,
        type: 3}
      propertyPath: m_Name
      value: virus_ufo_legs
      objectReference: {fileID: 0}
    - target: {fileID: 966580584440272099, guid: 39c2c66a3ccc5ce43afc4ffd4abd924b,
        type: 3}
      propertyPath: m_LocalPosition.x
      value: 0
      objectReference: {fileID: 0}
    - target: {fileID: 966580584440272099, guid: 39c2c66a3ccc5ce43afc4ffd4abd924b,
        type: 3}
      propertyPath: m_LocalPosition.y
      value: 0
      objectReference: {fileID: 0}
    - target: {fileID: 966580584440272099, guid: 39c2c66a3ccc5ce43afc4ffd4abd924b,
        type: 3}
      propertyPath: m_LocalPosition.z
      value: 0
      objectReference: {fileID: 0}
    - target: {fileID: 966580584440272099, guid: 39c2c66a3ccc5ce43afc4ffd4abd924b,
        type: 3}
      propertyPath: m_LocalRotation.x
      value: 0
      objectReference: {fileID: 0}
    - target: {fileID: 966580584440272099, guid: 39c2c66a3ccc5ce43afc4ffd4abd924b,
        type: 3}
      propertyPath: m_LocalRotation.y
      value: 0
      objectReference: {fileID: 0}
    - target: {fileID: 966580584440272099, guid: 39c2c66a3ccc5ce43afc4ffd4abd924b,
        type: 3}
      propertyPath: m_LocalRotation.z
      value: 0
      objectReference: {fileID: 0}
    - target: {fileID: 966580584440272099, guid: 39c2c66a3ccc5ce43afc4ffd4abd924b,
        type: 3}
      propertyPath: m_LocalRotation.w
      value: 1
      objectReference: {fileID: 0}
    - target: {fileID: 966580584440272099, guid: 39c2c66a3ccc5ce43afc4ffd4abd924b,
        type: 3}
      propertyPath: m_RootOrder
      value: 0
      objectReference: {fileID: 0}
    - target: {fileID: 966580584440272099, guid: 39c2c66a3ccc5ce43afc4ffd4abd924b,
        type: 3}
      propertyPath: m_LocalEulerAnglesHint.x
      value: 0
      objectReference: {fileID: 0}
    - target: {fileID: 966580584440272099, guid: 39c2c66a3ccc5ce43afc4ffd4abd924b,
        type: 3}
      propertyPath: m_LocalEulerAnglesHint.y
      value: 0
      objectReference: {fileID: 0}
    - target: {fileID: 966580584440272099, guid: 39c2c66a3ccc5ce43afc4ffd4abd924b,
        type: 3}
      propertyPath: m_LocalEulerAnglesHint.z
      value: 0
      objectReference: {fileID: 0}
    m_RemovedComponents: []
  m_SourcePrefab: {fileID: 100100000, guid: 39c2c66a3ccc5ce43afc4ffd4abd924b, type: 3}
