%YAML 1.1
%TAG !u! tag:unity3d.com,2011:
--- !u!1001 &4703299214743499351
PrefabInstance:
  m_ObjectHideFlags: 0
  serializedVersion: 2
  m_Modification:
    m_TransformParent: {fileID: 0}
    m_Modifications:
    - target: {fileID: 6484721598918292457, guid: b7b325a2925310946947ce4e2e551d32,
        type: 3}
      propertyPath: m_Name
      value: violet_ufo_legs Variant
      objectReference: {fileID: 0}
    - target: {fileID: 8173513586460267098, guid: b7b325a2925310946947ce4e2e551d32,
        type: 3}
      propertyPath: m_LocalPosition.x
      value: 0
      objectReference: {fileID: 0}
    - target: {fileID: 8173513586460267098, guid: b7b325a2925310946947ce4e2e551d32,
        type: 3}
      propertyPath: m_LocalPosition.y
      value: 0
      objectReference: {fileID: 0}
    - target: {fileID: 8173513586460267098, guid: b7b325a2925310946947ce4e2e551d32,
        type: 3}
      propertyPath: m_LocalPosition.z
      value: 0
      objectReference: {fileID: 0}
    - target: {fileID: 8173513586460267098, guid: b7b325a2925310946947ce4e2e551d32,
        type: 3}
      propertyPath: m_LocalRotation.x
      value: 0
      objectReference: {fileID: 0}
    - target: {fileID: 8173513586460267098, guid: b7b325a2925310946947ce4e2e551d32,
        type: 3}
      propertyPath: m_LocalRotation.y
      value: 0
      objectReference: {fileID: 0}
    - target: {fileID: 8173513586460267098, guid: b7b325a2925310946947ce4e2e551d32,
        type: 3}
      propertyPath: m_LocalRotation.z
      value: 0
      objectReference: {fileID: 0}
    - target: {fileID: 8173513586460267098, guid: b7b325a2925310946947ce4e2e551d32,
        type: 3}
      propertyPath: m_LocalRotation.w
      value: 1
      objectReference: {fileID: 0}
    - target: {fileID: 8173513586460267098, guid: b7b325a2925310946947ce4e2e551d32,
        type: 3}
      propertyPath: m_RootOrder
      value: 0
      objectReference: {fileID: 0}
    - target: {fileID: 8173513586460267098, guid: b7b325a2925310946947ce4e2e551d32,
        type: 3}
      propertyPath: m_LocalEulerAnglesHint.x
      value: 0
      objectReference: {fileID: 0}
    - target: {fileID: 8173513586460267098, guid: b7b325a2925310946947ce4e2e551d32,
        type: 3}
      propertyPath: m_LocalEulerAnglesHint.y
      value: 0
      objectReference: {fileID: 0}
    - target: {fileID: 8173513586460267098, guid: b7b325a2925310946947ce4e2e551d32,
        type: 3}
      propertyPath: m_LocalEulerAnglesHint.z
      value: 0
      objectReference: {fileID: 0}
    m_RemovedComponents: []
  m_SourcePrefab: {fileID: 100100000, guid: b7b325a2925310946947ce4e2e551d32, type: 3}
