%YAML 1.1
%TAG !u! tag:unity3d.com,2011:
--- !u!78 &1
TagManager:
  serializedVersion: 2
  tags:
  - robotA
  - robotB
  - move
  - GameManager
  - block
  - ocupada
  - attack
  - hudActions
  - Draggable
  - Holder
  - factory
  - miniFactoryB
  - miniFactoryA
  - factoryA
  - factoryB
  - water
  - buttons
  layers:
  - Default
  - TransparentFX
  - Ignore Raycast
  - 
  - Water
  - UI
  - 
  - 
  - tablero
  - 
  - 
  - 
  - 
  - 
  - 
  - 
  - 
  - 
  - 
  - 
  - 
  - 
  - 
  - 
  - 
  - 
  - 
  - 
  - 
  - 
  - 
  - 
  m_SortingLayers:
  - name: Default
    uniqueID: 0
    locked: 0
  - name: BackPiece
    uniqueID: 2473002173
    locked: 0
  - name: LeftArm
    uniqueID: 1047567779
    locked: 0
  - name: TorsoNeck
    uniqueID: 873448907
    locked: 0
  - name: Legs
    uniqueID: 700020785
    locked: 0
  - name: RightArm_au
    uniqueID: 2751911107
    locked: 0
  - name: Chest
    uniqueID: 4074433031
    locked: 0
  - name: Head
    uniqueID: 3656299709
    locked: 0
  - name: Weapon
    uniqueID: 1788969313
    locked: 0
  - name: RightArm_it
    uniqueID: 3742093133
    locked: 0
  - name: Fists
    uniqueID: 1593447205
    locked: 0
