%YAML 1.1
%TAG !u! tag:unity3d.com,2011:
--- !u!1001 &2998408419653417941
PrefabInstance:
  m_ObjectHideFlags: 0
  serializedVersion: 2
  m_Modification:
    m_TransformParent: {fileID: 0}
    m_Modifications:
    - target: {fileID: 7661631100278449499, guid: d5fff807b136e6844a0f668fc8e33cb2,
        type: 3}
      propertyPath: m_Name
      value: green_inf_legs Variant
      objectReference: {fileID: 0}
    - target: {fileID: 5676570456216174636, guid: d5fff807b136e6844a0f668fc8e33cb2,
        type: 3}
      propertyPath: m_LocalPosition.x
      value: 0
      objectReference: {fileID: 0}
    - target: {fileID: 5676570456216174636, guid: d5fff807b136e6844a0f668fc8e33cb2,
        type: 3}
      propertyPath: m_LocalPosition.y
      value: 0
      objectReference: {fileID: 0}
    - target: {fileID: 5676570456216174636, guid: d5fff807b136e6844a0f668fc8e33cb2,
        type: 3}
      propertyPath: m_LocalPosition.z
      value: 0
      objectReference: {fileID: 0}
    - target: {fileID: 5676570456216174636, guid: d5fff807b136e6844a0f668fc8e33cb2,
        type: 3}
      propertyPath: m_LocalRotation.x
      value: 0
      objectReference: {fileID: 0}
    - target: {fileID: 5676570456216174636, guid: d5fff807b136e6844a0f668fc8e33cb2,
        type: 3}
      propertyPath: m_LocalRotation.y
      value: 0
      objectReference: {fileID: 0}
    - target: {fileID: 5676570456216174636, guid: d5fff807b136e6844a0f668fc8e33cb2,
        type: 3}
      propertyPath: m_LocalRotation.z
      value: 0
      objectReference: {fileID: 0}
    - target: {fileID: 5676570456216174636, guid: d5fff807b136e6844a0f668fc8e33cb2,
        type: 3}
      propertyPath: m_LocalRotation.w
      value: 1
      objectReference: {fileID: 0}
    - target: {fileID: 5676570456216174636, guid: d5fff807b136e6844a0f668fc8e33cb2,
        type: 3}
      propertyPath: m_RootOrder
      value: 0
      objectReference: {fileID: 0}
    - target: {fileID: 5676570456216174636, guid: d5fff807b136e6844a0f668fc8e33cb2,
        type: 3}
      propertyPath: m_LocalEulerAnglesHint.x
      value: 0
      objectReference: {fileID: 0}
    - target: {fileID: 5676570456216174636, guid: d5fff807b136e6844a0f668fc8e33cb2,
        type: 3}
      propertyPath: m_LocalEulerAnglesHint.y
      value: 0
      objectReference: {fileID: 0}
    - target: {fileID: 5676570456216174636, guid: d5fff807b136e6844a0f668fc8e33cb2,
        type: 3}
      propertyPath: m_LocalEulerAnglesHint.z
      value: 0
      objectReference: {fileID: 0}
    m_RemovedComponents: []
  m_SourcePrefab: {fileID: 100100000, guid: d5fff807b136e6844a0f668fc8e33cb2, type: 3}
