%YAML 1.1
%TAG !u! tag:unity3d.com,2011:
--- !u!1001 &8308549746863473592
PrefabInstance:
  m_ObjectHideFlags: 0
  serializedVersion: 2
  m_Modification:
    m_TransformParent: {fileID: 0}
    m_Modifications:
    - target: {fileID: 2618125309292275370, guid: 296930a166232f643be4a2df8c90abec,
        type: 3}
      propertyPath: m_Name
      value: red_tank_torso_v2 Variant
      objectReference: {fileID: 0}
    - target: {fileID: 2099771333812768953, guid: 296930a166232f643be4a2df8c90abec,
        type: 3}
      propertyPath: m_LocalPosition.x
      value: 0
      objectReference: {fileID: 0}
    - target: {fileID: 2099771333812768953, guid: 296930a166232f643be4a2df8c90abec,
        type: 3}
      propertyPath: m_LocalPosition.y
      value: 0
      objectReference: {fileID: 0}
    - target: {fileID: 2099771333812768953, guid: 296930a166232f643be4a2df8c90abec,
        type: 3}
      propertyPath: m_LocalPosition.z
      value: 0
      objectReference: {fileID: 0}
    - target: {fileID: 2099771333812768953, guid: 296930a166232f643be4a2df8c90abec,
        type: 3}
      propertyPath: m_LocalRotation.x
      value: 0
      objectReference: {fileID: 0}
    - target: {fileID: 2099771333812768953, guid: 296930a166232f643be4a2df8c90abec,
        type: 3}
      propertyPath: m_LocalRotation.y
      value: 0
      objectReference: {fileID: 0}
    - target: {fileID: 2099771333812768953, guid: 296930a166232f643be4a2df8c90abec,
        type: 3}
      propertyPath: m_LocalRotation.z
      value: 0
      objectReference: {fileID: 0}
    - target: {fileID: 2099771333812768953, guid: 296930a166232f643be4a2df8c90abec,
        type: 3}
      propertyPath: m_LocalRotation.w
      value: 1
      objectReference: {fileID: 0}
    - target: {fileID: 2099771333812768953, guid: 296930a166232f643be4a2df8c90abec,
        type: 3}
      propertyPath: m_RootOrder
      value: 0
      objectReference: {fileID: 0}
    - target: {fileID: 2099771333812768953, guid: 296930a166232f643be4a2df8c90abec,
        type: 3}
      propertyPath: m_LocalEulerAnglesHint.x
      value: 0
      objectReference: {fileID: 0}
    - target: {fileID: 2099771333812768953, guid: 296930a166232f643be4a2df8c90abec,
        type: 3}
      propertyPath: m_LocalEulerAnglesHint.y
      value: 0
      objectReference: {fileID: 0}
    - target: {fileID: 2099771333812768953, guid: 296930a166232f643be4a2df8c90abec,
        type: 3}
      propertyPath: m_LocalEulerAnglesHint.z
      value: 0
      objectReference: {fileID: 0}
    m_RemovedComponents: []
  m_SourcePrefab: {fileID: 100100000, guid: 296930a166232f643be4a2df8c90abec, type: 3}
