%YAML 1.1
%TAG !u! tag:unity3d.com,2011:
--- !u!1001 &4199590246454472386
PrefabInstance:
  m_ObjectHideFlags: 0
  serializedVersion: 2
  m_Modification:
    m_TransformParent: {fileID: 0}
    m_Modifications:
    - target: {fileID: 2526819636941958341, guid: 0d7859ca8653c3b4e88f16a7ea6a62c5,
        type: 3}
      propertyPath: m_Name
      value: red_tank_legs Variant
      objectReference: {fileID: 0}
    - target: {fileID: 1084389799083714303, guid: 0d7859ca8653c3b4e88f16a7ea6a62c5,
        type: 3}
      propertyPath: m_LocalPosition.x
      value: 0
      objectReference: {fileID: 0}
    - target: {fileID: 1084389799083714303, guid: 0d7859ca8653c3b4e88f16a7ea6a62c5,
        type: 3}
      propertyPath: m_LocalPosition.y
      value: 0
      objectReference: {fileID: 0}
    - target: {fileID: 1084389799083714303, guid: 0d7859ca8653c3b4e88f16a7ea6a62c5,
        type: 3}
      propertyPath: m_LocalPosition.z
      value: 0
      objectReference: {fileID: 0}
    - target: {fileID: 1084389799083714303, guid: 0d7859ca8653c3b4e88f16a7ea6a62c5,
        type: 3}
      propertyPath: m_LocalRotation.x
      value: 0
      objectReference: {fileID: 0}
    - target: {fileID: 1084389799083714303, guid: 0d7859ca8653c3b4e88f16a7ea6a62c5,
        type: 3}
      propertyPath: m_LocalRotation.y
      value: 0
      objectReference: {fileID: 0}
    - target: {fileID: 1084389799083714303, guid: 0d7859ca8653c3b4e88f16a7ea6a62c5,
        type: 3}
      propertyPath: m_LocalRotation.z
      value: 0
      objectReference: {fileID: 0}
    - target: {fileID: 1084389799083714303, guid: 0d7859ca8653c3b4e88f16a7ea6a62c5,
        type: 3}
      propertyPath: m_LocalRotation.w
      value: 1
      objectReference: {fileID: 0}
    - target: {fileID: 1084389799083714303, guid: 0d7859ca8653c3b4e88f16a7ea6a62c5,
        type: 3}
      propertyPath: m_RootOrder
      value: 0
      objectReference: {fileID: 0}
    - target: {fileID: 1084389799083714303, guid: 0d7859ca8653c3b4e88f16a7ea6a62c5,
        type: 3}
      propertyPath: m_LocalEulerAnglesHint.x
      value: 0
      objectReference: {fileID: 0}
    - target: {fileID: 1084389799083714303, guid: 0d7859ca8653c3b4e88f16a7ea6a62c5,
        type: 3}
      propertyPath: m_LocalEulerAnglesHint.y
      value: 0
      objectReference: {fileID: 0}
    - target: {fileID: 1084389799083714303, guid: 0d7859ca8653c3b4e88f16a7ea6a62c5,
        type: 3}
      propertyPath: m_LocalEulerAnglesHint.z
      value: 0
      objectReference: {fileID: 0}
    - target: {fileID: 1127546364109918239, guid: 0d7859ca8653c3b4e88f16a7ea6a62c5,
        type: 3}
      propertyPath: m_LocalRotation.x
      value: 0
      objectReference: {fileID: 0}
    - target: {fileID: 1127546364109918239, guid: 0d7859ca8653c3b4e88f16a7ea6a62c5,
        type: 3}
      propertyPath: m_LocalRotation.y
      value: 0
      objectReference: {fileID: 0}
    - target: {fileID: 1127546364109918239, guid: 0d7859ca8653c3b4e88f16a7ea6a62c5,
        type: 3}
      propertyPath: m_LocalRotation.z
      value: 0.00000038941437
      objectReference: {fileID: 0}
    - target: {fileID: 1127546364109918239, guid: 0d7859ca8653c3b4e88f16a7ea6a62c5,
        type: 3}
      propertyPath: m_LocalRotation.w
      value: -1
      objectReference: {fileID: 0}
    - target: {fileID: 1127546364109918239, guid: 0d7859ca8653c3b4e88f16a7ea6a62c5,
        type: 3}
      propertyPath: m_LocalPosition.x
      value: 1.9988072
      objectReference: {fileID: 0}
    - target: {fileID: 1127546364109918239, guid: 0d7859ca8653c3b4e88f16a7ea6a62c5,
        type: 3}
      propertyPath: m_LocalPosition.y
      value: -10.126191
      objectReference: {fileID: 0}
    - target: {fileID: 3860524358911356408, guid: 0d7859ca8653c3b4e88f16a7ea6a62c5,
        type: 3}
      propertyPath: m_LocalRotation.x
      value: 0
      objectReference: {fileID: 0}
    - target: {fileID: 3860524358911356408, guid: 0d7859ca8653c3b4e88f16a7ea6a62c5,
        type: 3}
      propertyPath: m_LocalRotation.y
      value: 0
      objectReference: {fileID: 0}
    - target: {fileID: 3860524358911356408, guid: 0d7859ca8653c3b4e88f16a7ea6a62c5,
        type: 3}
      propertyPath: m_LocalRotation.z
      value: 0.0035252192
      objectReference: {fileID: 0}
    - target: {fileID: 3860524358911356408, guid: 0d7859ca8653c3b4e88f16a7ea6a62c5,
        type: 3}
      propertyPath: m_LocalRotation.w
      value: 0.9999938
      objectReference: {fileID: 0}
    - target: {fileID: 3860524358911356408, guid: 0d7859ca8653c3b4e88f16a7ea6a62c5,
        type: 3}
      propertyPath: m_LocalPosition.x
      value: -0.12754759
      objectReference: {fileID: 0}
    - target: {fileID: 3860524358911356408, guid: 0d7859ca8653c3b4e88f16a7ea6a62c5,
        type: 3}
      propertyPath: m_LocalPosition.y
      value: -3.7681892
      objectReference: {fileID: 0}
    - target: {fileID: 219860799541883489, guid: 0d7859ca8653c3b4e88f16a7ea6a62c5,
        type: 3}
      propertyPath: m_LocalRotation.x
      value: 0
      objectReference: {fileID: 0}
    - target: {fileID: 219860799541883489, guid: 0d7859ca8653c3b4e88f16a7ea6a62c5,
        type: 3}
      propertyPath: m_LocalRotation.y
      value: 0
      objectReference: {fileID: 0}
    - target: {fileID: 219860799541883489, guid: 0d7859ca8653c3b4e88f16a7ea6a62c5,
        type: 3}
      propertyPath: m_LocalRotation.z
      value: 0
      objectReference: {fileID: 0}
    - target: {fileID: 219860799541883489, guid: 0d7859ca8653c3b4e88f16a7ea6a62c5,
        type: 3}
      propertyPath: m_LocalPosition.x
      value: -2.7106543
      objectReference: {fileID: 0}
    - target: {fileID: 219860799541883489, guid: 0d7859ca8653c3b4e88f16a7ea6a62c5,
        type: 3}
      propertyPath: m_LocalPosition.y
      value: -10.143972
      objectReference: {fileID: 0}
    - target: {fileID: 2635237736502885163, guid: 0d7859ca8653c3b4e88f16a7ea6a62c5,
        type: 3}
      propertyPath: m_LocalRotation.x
      value: 0
      objectReference: {fileID: 0}
    - target: {fileID: 2635237736502885163, guid: 0d7859ca8653c3b4e88f16a7ea6a62c5,
        type: 3}
      propertyPath: m_LocalRotation.y
      value: 0
      objectReference: {fileID: 0}
    - target: {fileID: 2635237736502885163, guid: 0d7859ca8653c3b4e88f16a7ea6a62c5,
        type: 3}
      propertyPath: m_LocalRotation.z
      value: 0.0050413427
      objectReference: {fileID: 0}
    - target: {fileID: 2635237736502885163, guid: 0d7859ca8653c3b4e88f16a7ea6a62c5,
        type: 3}
      propertyPath: m_LocalRotation.w
      value: 0.9999873
      objectReference: {fileID: 0}
    - target: {fileID: 2635237736502885163, guid: 0d7859ca8653c3b4e88f16a7ea6a62c5,
        type: 3}
      propertyPath: m_LocalPosition.x
      value: -0.14735651
      objectReference: {fileID: 0}
    - target: {fileID: 2635237736502885163, guid: 0d7859ca8653c3b4e88f16a7ea6a62c5,
        type: 3}
      propertyPath: m_LocalPosition.y
      value: -3.1690354
      objectReference: {fileID: 0}
    - target: {fileID: 9020541848033107444, guid: 0d7859ca8653c3b4e88f16a7ea6a62c5,
        type: 3}
      propertyPath: m_LocalPosition.y
      value: -3.7444284
      objectReference: {fileID: 0}
    - target: {fileID: 9020541848033107444, guid: 0d7859ca8653c3b4e88f16a7ea6a62c5,
        type: 3}
      propertyPath: m_LocalScale.y
      value: 1.537753
      objectReference: {fileID: 0}
    - target: {fileID: 8731326296227631046, guid: 0d7859ca8653c3b4e88f16a7ea6a62c5,
        type: 3}
      propertyPath: m_Sprite
      value: 
      objectReference: {fileID: 21300000, guid: c2a18e0ff562dfa4b802acad8a86f62b,
        type: 3}
    - target: {fileID: 8731326296227631046, guid: 0d7859ca8653c3b4e88f16a7ea6a62c5,
        type: 3}
      propertyPath: m_Size.x
      value: 10.84
      objectReference: {fileID: 0}
    - target: {fileID: 8731326296227631046, guid: 0d7859ca8653c3b4e88f16a7ea6a62c5,
        type: 3}
      propertyPath: m_Size.y
      value: 6.6
      objectReference: {fileID: 0}
    - target: {fileID: 8731326296227631046, guid: 0d7859ca8653c3b4e88f16a7ea6a62c5,
        type: 3}
      propertyPath: m_WasSpriteAssigned
      value: 1
      objectReference: {fileID: 0}
    - target: {fileID: 8745331360358229031, guid: 0d7859ca8653c3b4e88f16a7ea6a62c5,
        type: 3}
      propertyPath: m_SortingOrder
      value: 2
      objectReference: {fileID: 0}
    - target: {fileID: 8745331360358229031, guid: 0d7859ca8653c3b4e88f16a7ea6a62c5,
        type: 3}
      propertyPath: m_Sprite
      value: 
      objectReference: {fileID: 21300000, guid: c2a18e0ff562dfa4b802acad8a86f62b,
        type: 3}
    - target: {fileID: 8745331360358229031, guid: 0d7859ca8653c3b4e88f16a7ea6a62c5,
        type: 3}
      propertyPath: m_Size.x
      value: 10.84
      objectReference: {fileID: 0}
    - target: {fileID: 8745331360358229031, guid: 0d7859ca8653c3b4e88f16a7ea6a62c5,
        type: 3}
      propertyPath: m_Size.y
      value: 6.6
      objectReference: {fileID: 0}
    - target: {fileID: 8745331360358229031, guid: 0d7859ca8653c3b4e88f16a7ea6a62c5,
        type: 3}
      propertyPath: m_WasSpriteAssigned
      value: 1
      objectReference: {fileID: 0}
    - target: {fileID: 4521753676608824438, guid: 0d7859ca8653c3b4e88f16a7ea6a62c5,
        type: 3}
      propertyPath: m_SortingOrder
      value: 3
      objectReference: {fileID: 0}
    - target: {fileID: 4521753676608824438, guid: 0d7859ca8653c3b4e88f16a7ea6a62c5,
        type: 3}
      propertyPath: m_Sprite
      value: 
      objectReference: {fileID: 21300000, guid: e73044adc1f17e847a53cceacbb09d42,
        type: 3}
    - target: {fileID: 4521753676608824438, guid: 0d7859ca8653c3b4e88f16a7ea6a62c5,
        type: 3}
      propertyPath: m_Size.x
      value: 5.49
      objectReference: {fileID: 0}
    - target: {fileID: 4521753676608824438, guid: 0d7859ca8653c3b4e88f16a7ea6a62c5,
        type: 3}
      propertyPath: m_Size.y
      value: 2.27
      objectReference: {fileID: 0}
    - target: {fileID: 4521753676608824438, guid: 0d7859ca8653c3b4e88f16a7ea6a62c5,
        type: 3}
      propertyPath: m_WasSpriteAssigned
      value: 1
      objectReference: {fileID: 0}
    - target: {fileID: 6721555792588049487, guid: 0d7859ca8653c3b4e88f16a7ea6a62c5,
        type: 3}
      propertyPath: m_SortingOrder
      value: 1
      objectReference: {fileID: 0}
    - target: {fileID: 6721555792588049487, guid: 0d7859ca8653c3b4e88f16a7ea6a62c5,
        type: 3}
      propertyPath: m_Sprite
      value: 
      objectReference: {fileID: 21300000, guid: 48ac57f132f0f0f4baa6282c0b917264,
        type: 3}
    - target: {fileID: 6721555792588049487, guid: 0d7859ca8653c3b4e88f16a7ea6a62c5,
        type: 3}
      propertyPath: m_Size.x
      value: 3.87
      objectReference: {fileID: 0}
    - target: {fileID: 6721555792588049487, guid: 0d7859ca8653c3b4e88f16a7ea6a62c5,
        type: 3}
      propertyPath: m_Size.y
      value: 4.87
      objectReference: {fileID: 0}
    - target: {fileID: 6721555792588049487, guid: 0d7859ca8653c3b4e88f16a7ea6a62c5,
        type: 3}
      propertyPath: m_WasSpriteAssigned
      value: 1
      objectReference: {fileID: 0}
    m_RemovedComponents: []
  m_SourcePrefab: {fileID: 100100000, guid: 0d7859ca8653c3b4e88f16a7ea6a62c5, type: 3}
